# ConcepTIS project/QTIS project
# (c) Alex V Eustrop 2009
# (c) Alex V Eustrop & EustroSoft.org 2023
# see LICENSE.ConcepTIS at the project's root directory
# $Id$
#
# Атрибут	Значение	Значение2/код	
NAME	DIC.QTable	QT	
OBJECT			
HEADER	NONE		
PKEY	subsys,otype,tcode		
INDEX	parent		
#	Поле	Тип	Атрибуты	Название	Описание
01	subsys	varchar(16)	NN	Subsystem	code of subsystem (10 characters)
02	otype	varchar(4)	NN	Object	code of data object type
03	tcode	varchar(4)	NN	Code	code of table (record)
04	name	varchar(128)	NN	Name	name of data object type
05	parent	varchar(8)	NN	Parent Code	code of parent table (record)
06	header	varchar(16)	NN	Header	type of record header. NONE for not
07	maxrec	bigint	NUL	Maximum	number of records per data object to pass QC
08	minrec	bigint	NUL	Minimum	number of records per data object to pass QC
09	QC2	varchar(128)	NUL	QC2	QC2 - manual-written quality control stored procedure or null. special name Y for standart naming
10	pkey	varchar(255)	NUL	Primary key	comma-separated list of fields used for primary key of this table 
11	qname	varchar(128)	NUL	QNAME field	name of field used as QNAME
12	qdescr	varchar(128)	NUL	QDescr fields	comma-separated list of fields used to construct a descriptive string for this record
13	caption	varchar(128)	NUL	Caption	caption of this record-type to using at user interface
14	descr	varchar(1024)	NUL	Description	long description of this record-type
15	indexes	varchar(1024)	NUL	Indexes	semicolon separated groups of comma-separated list of fields used for indexes
