# ConcepTIS project/QTIS project
# (c) Alex V Eustrop 2009
# (c) Alex V Eustrop & EustroSoft.org 2023
# see LICENSE.ConcepTIS at the project's root directory
# $Id$
#
# Атрибут	Значение	Значение2/код	
NAME	SAM.UserCapability	XUC	
HEADER	NONE		
PKEY	uid,sid,capcode		
INDEX	capcode		
#	Поле	Тип	Атрибуты	Название	Описание
01	uid	bigint	NN,UID	Пользователь	ID пользователя системы
02	sid	bigint	NN,SID	Область данных	ID области данных, 0 . для глобальных привилегий
03	capcode	char(32)	NN,DIC=CAPABILITY	Привилегия	код привилегии
