# ConcepTIS project/QTIS project
# (c) Alex V Eustrop 2009
# (c) Alex V Eustrop & EustroSoft.org 2023
# see LICENSE.ConcepTIS at the project's root directory
# 2023-04-36 15:30 update ZNAME varchar(255), ZTYPE varchar(14)
#
#
NAME	TIS.ZName	ZN
PKEY	ZOID
INDEX	ZNAME
#UNIQUE  (QNAME,QSYS,QTYPE,QSID)
#N	Поле	Тип	NN	Описание
01	ZOID	bigint	NN	уникальный идентификатор ОД
02	ZTYPE	varchar(14)	NN	код типа ОД
03	ZSID	bigint	NN	идентификатор области данных, к которой принадлежит ОД
04	ZLVL	smallint	NN	уровень секретности ОД (используется мандатной СРД)
05	ZNAME	varchar(255)	NN	Уникальное, ключевое имя ОД
